%YAML 1.1
%TAG !u! tag:unity3d.com,2011:
--- !u!1 &2049992490323928184
GameObject:
  m_ObjectHideFlags: 0
  m_CorrespondingSourceObject: {fileID: 0}
  m_PrefabInstance: {fileID: 0}
  m_PrefabAsset: {fileID: 0}
  serializedVersion: 6
  m_Component:
  - component: {fileID: 2049992490323928185}
  - component: {fileID: 2049992490323928190}
  m_Layer: 0
  m_Name: Pools
  m_TagString: Untagged
  m_Icon: {fileID: 0}
  m_NavMeshLayer: 0
  m_StaticEditorFlags: 0
  m_IsActive: 1
--- !u!4 &2049992490323928185
Transform:
  m_ObjectHideFlags: 0
  m_CorrespondingSourceObject: {fileID: 0}
  m_PrefabInstance: {fileID: 0}
  m_PrefabAsset: {fileID: 0}
  m_GameObject: {fileID: 2049992490323928184}
  m_LocalRotation: {x: 0, y: 0, z: 0, w: 1}
  m_LocalPosition: {x: 3.16, y: 1, z: 5.43}
  m_LocalScale: {x: 1, y: 1, z: 1}
  m_Children: []
  m_Father: {fileID: 0}
  m_RootOrder: 0
  m_LocalEulerAnglesHint: {x: 0, y: 0, z: 0}
--- !u!114 &2049992490323928190
MonoBehaviour:
  m_ObjectHideFlags: 0
  m_CorrespondingSourceObject: {fileID: 0}
  m_PrefabInstance: {fileID: 0}
  m_PrefabAsset: {fileID: 0}
  m_GameObject: {fileID: 2049992490323928184}
  m_Enabled: 1
  m_EditorHideFlags: 0
  m_Script: {fileID: 11500000, guid: d8484f915eca7434f8e3b9c568fffd3e, type: 3}
  m_Name: 
  m_EditorClassIdentifier: 
  arHit: {fileID: 393479284428375436, guid: fdf62696f970d5444bbbf5c2dcf00653, type: 3}
  arTrail: {fileID: 2979335855236099671, guid: 83827e7337c41694dab63ab84a4445d3, type: 3}
  arPoolSize: 80
  shotgunHit: {fileID: 393479284428375436, guid: 8b73eed9f4034da4893816d35248aca5,
    type: 3}
  shotguntrail: {fileID: 2979335855236099671, guid: 14f5f93a00e3b4f45ad0575783fca825,
    type: 3}
  shotgunPoolSize: 50
